2 Methods | The homogeneity of the mode choice estimation between an activity-based model and a microsimulation tool
…
Tour Index

Tour Purpose

Mode Chosen

Vehicle Ownership

Income

2.2 Models

A different multinomial logit function exists for each version of BEAM that was run. Instead of writing out the lengthy equation that exists for each version, a table of utility parameters and their values are provided for each model. The following tables (Table 1 through Table 4) provide this information.

## # A tibble: 36 x 7
##    model      tourType variable alternative       units    latentClass   value
##    <chr>      <chr>    <chr>    <chr>             <chr>    <lgl>         <dbl>
##  1 modeChoice MNL      cost     bike              util/min NA          -1     
##  2 modeChoice MNL      cost     bike_transit      util/min NA          -1     
##  3 modeChoice MNL      cost     car               util/min NA          -1     
##  4 modeChoice MNL      cost     drive_transit     util/min NA          -1     
##  5 modeChoice MNL      cost     ride_hail         util/min NA          -1     
##  6 modeChoice MNL      cost     ride_hail_pooled  util/min NA          -1     
##  7 modeChoice MNL      cost     ride_hail_transit util/min NA          -1     
##  8 modeChoice MNL      cost     walk              util/min NA          -1     
##  9 modeChoice MNL      cost     walk_transit      util/min NA          -1     
## 10 modeChoice MNL      time     bike              util/min NA          -0.0047
## # ... with 26 more rows
…
